<?xml version="1.0" encoding="UTF-8" standalone="no"?>
<svg
   xmlns:dc="http://purl.org/dc/elements/1.1/"
   xmlns:cc="http://creativecommons.org/ns#"
   xmlns:rdf="http://www.w3.org/1999/02/22-rdf-syntax-ns#"
   xmlns:svg="http://www.w3.org/2000/svg"
   xmlns="http://www.w3.org/2000/svg"
   xmlns:sodipodi="http://sodipodi.sourceforge.net/DTD/sodipodi-0.dtd"
   xmlns:inkscape="http://www.inkscape.org/namespaces/inkscape"
   height="96"
   viewBox="0 0 96 96.000001"
   width="96"
   version="1.1"
   id="svg32"
   sodipodi:docname="weather-heavy-rain5.svg"
   inkscape:version="1.0.1 (3bc2e813f5, 2020-09-07)">
  <metadata
     id="metadata38">
    <rdf:RDF>
      <cc:Work
         rdf:about="">
        <dc:format>image/svg+xml</dc:format>
        <dc:type
           rdf:resource="http://purl.org/dc/dcmitype/StillImage" />
        <dc:title></dc:title>
      </cc:Work>
    </rdf:RDF>
  </metadata>
  <defs
     id="defs36" />
  <sodipodi:namedview
     pagecolor="#ffffff"
     bordercolor="#666666"
     borderopacity="1"
     objecttolerance="10"
     gridtolerance="10"
     guidetolerance="10"
     inkscape:pageopacity="0"
     inkscape:pageshadow="2"
     inkscape:window-width="1856"
     inkscape:window-height="1043"
     id="namedview34"
     showgrid="false"
     inkscape:zoom="2.265625"
     inkscape:cx="6.8753262"
     inkscape:cy="-1.3806803"
     inkscape:window-x="64"
     inkscape:window-y="0"
     inkscape:window-maximized="1"
     inkscape:current-layer="g16" />
  <g
     transform="translate(67.86 -78.51)"
     id="g30">
    <g
       transform="matrix(0 -1 -1 0 373.5 516.5)"
       id="g28">
      <g
         transform="matrix(-.9996 0 0 1 575.9 -611)"
         id="g26">
        <g
           transform="matrix(-1 0 0 1 576 611)"
           id="g24">
          <rect
             style="color:#000000"
             transform="scale(-1,1)"
             height="96"
             width="96.04"
             y="345.4"
             x="-438"
             fill="none"
             id="rect2" />
          <path
             style="color:#000000"
             d="m58.78 3.891c-7.51 0.009-14.56 3.614-18.97 9.699-1.64-0.46-3.33-0.7-5.02-0.71-10.09 0.02-18.35 8.02-18.7 18.11-6.892 0.83-12.08 6.68-12.09 13.63 0 7.59 6.14 13.75 13.72 13.75h7.22c-1.23-1.14-2.28-2.49-3.06-4h-4.16c-5.41 0-9.72-4.32-9.72-9.75 0.009-4.96 3.66-9.07 8.57-9.66l3.4-0.41 0.12-3.42c0.28-7.98 6.73-14.23 14.69-14.24 1.33 0 2.66 0.19 3.94 0.55l2.69 0.76 1.64-2.26c3.66-5.05 9.5-8.041 15.72-8.051 10.63 0.006 19.23 8.441 19.46 19.09l0.06 2.55 2.32 1.02c4.5 2 7.39 6.44 7.39 11.37 0 6.57-4.96 11.86-11.36 12.4-0.45 1.45-1.19 2.77-2.14 3.9 0.69 0.02 1.41 0.04 1.56 0.12 8.84-0.25 15.94-7.5 15.94-16.42 0-6.5-3.83-12.39-9.77-15.02-0.27-12.78-10.69-23-23.45-23.01z"
             transform="matrix(0 -1 -1 0 438 441.4)"
             fill="#808080"
             id="path4" />
          <path
             style="color-rendering:auto;color:#000000;shape-rendering:auto;text-decoration-line:none;image-rendering:auto;text-indent:0;text-transform:none"
             d="m419.4 387.7c0 7.81-4.829 14.44-11.68 17.6-0.5352 7.334-6.883 13.12-14.57 13.12-8.028 0-14.66-6.293-14.66-14.1v-32.11c0-5.967 5.071-10.77 11.18-10.77 4.633 0 8.545 2.784 10.23 6.736 10.79 0.4878 19.5 8.98 19.5 19.53zm-4 0c0-8.343-6.893-15.13-15.68-15.53l-2.517-0.1133-0.9828-2.316c-1.072-2.518-3.517-4.303-6.548-4.303-4.008 0-7.177 3.073-7.177 6.773v32.11c0 5.537 4.718 10.09 10.65 10.09 5.676 0 10.2-4.208 10.58-9.404l0.1719-2.357 2.147-0.9863c5.568-2.561 9.355-7.802 9.355-13.96z"
             fill="#808080"
             id="path6" />
          <g
             transform="matrix(0 -1 -1 0 516.5 473.5)"
             id="g22">
            <g
               transform="matrix(0 -1 -1 0 373.5 516.5)"
               id="g20">
              <g
                 transform="matrix(-.9996 0 0 1 575.9 -601)"
                 id="g18">
                <g
                   transform="matrix(-1 0 0 1 576 611.9)"
                   fill="#808080"
                   id="g16">
                  <path
                     style="color:#000000"
                     d="m346 292.8c0 3.978 3.225 7.202 7.202 7.202 0.7898 0 1.548-0.1332 2.259-0.3681 0.0723-0.024 0.1469-0.043 0.2181-0.069 0.607-0.1834 9.429-2.872 17.34-6.773h-0.002-0.004-0.004-0.002c-8.641-4.168-17.55-6.817-17.55-6.817-0.7107-0.2346-1.469-0.3634-2.259-0.3634-3.978 0-7.202 3.225-7.202 7.202z"
                     id="path8" />
                  <path
                     style="color:#000000"
                     d="m 353.8867,267.93508 c 0,3.329 2.698,6.027 6.027,6.027 0.6609,0 1.295,-0.1115 1.89,-0.3081 0.0605,-0.02 0.1229,-0.036 0.1825,-0.058 0.508,-0.1535 7.891,-2.404 14.51,-5.668 h -10e-4 -0.004 -0.003 -0.001 c -7.231,-3.487 -14.68,-5.704 -14.68,-5.704 -0.5947,-0.1963 -1.23,-0.3041 -1.89,-0.3041 -3.329,0 -6.027,2.698 -6.027,6.027 z"
                     id="path10" />
                  <path
                     style="color:#000000"
                     d="m 355.62001,311.01789 c 0,2.985 2.419,5.404 5.404,5.404 0.5926,0 1.161,-0.1 1.695,-0.2762 0.0542,-0.018 0.1102,-0.032 0.1637,-0.052 0.4555,-0.1376 7.075,-2.155 13.01,-5.082 h -0.001 -0.003 -0.003 -0.001 c -6.483,-3.127 -13.17,-5.115 -13.17,-5.115 -0.5332,-0.1761 -1.102,-0.2727 -1.695,-0.2727 -2.985,0 -5.404,2.42 -5.404,5.404 z"
                     id="path12" />
                  <path
                     style="color:#000000"
                     d="m 347.36544,246.13392 c 0,3.978 3.225,7.202 7.202,7.202 0.7898,0 1.548,-0.1332 2.259,-0.3681 0.0723,-0.024 0.1469,-0.043 0.2181,-0.069 0.607,-0.1834 9.429,-2.872 17.34,-6.773 h -0.002 -0.004 -0.004 -0.002 c -8.641,-4.168 -17.55,-6.817 -17.55,-6.817 -0.7107,-0.2346 -1.469,-0.3634 -2.259,-0.3634 -3.978,0 -7.202,3.225 -7.202,7.202 z"
                     id="path14" />
                </g>
              </g>
            </g>
          </g>
        </g>
      </g>
    </g>
  </g>
</svg>
